fifo/fifo.sim/sim_1/behav/xsim/simulate.log
Vivado Simulator 2020.2
Time resolution is 1 ps
Time = 1575000: Comparison Passed: wr_data = 07 and rd_data = 07
Time = 1715000: Comparison Passed: wr_data = 1a and rd_data = 1a
Time = 1855000: Comparison Passed: wr_data = d1 and rd_data = d1
Time = 1995000: Comparison Passed: wr_data = c3 and rd_data = c3
Time = 2135000: Comparison Passed: wr_data = ea and rd_data = ea
Time = 2275000: Comparison Passed: wr_data = bd and rd_data = bd
Time = 2415000: Comparison Passed: wr_data = 59 and rd_data = 59
Time = 2555000: Comparison Passed: wr_data = f2 and rd_data = f2
Time = 2695000: Comparison Passed: wr_data = d8 and rd_data = d8
Time = 2835000: Comparison Passed: wr_data = 2a and rd_data = 2a
Time = 2975000: Comparison Passed: wr_data = b5 and rd_data = b5
Time = 3115000: Comparison Passed: wr_data = c2 and rd_data = c2
Time = 3255000: Comparison Passed: wr_data = e8 and rd_data = e8
Time = 3395000: Comparison Passed: wr_data = 0f and rd_data = 0f
Time = 3535000: Comparison Passed: wr_data = b4 and rd_data = b4
Time = 3675000: Comparison Passed: wr_data = c0 and rd_data = c0
Time = 3815000: Comparison Passed: wr_data = 39 and rd_data = 39
Time = 3955000: Comparison Passed: wr_data = 6a and rd_data = 6a
Time = 4095000: Comparison Passed: wr_data = 82 and rd_data = 82
Time = 4235000: Comparison Passed: wr_data = 21 and rd_data = 21
Time = 4375000: Comparison Passed: wr_data = 79 and rd_data = 79
Time = 4515000: Comparison Passed: wr_data = 37 and rd_data = 37
Time = 4655000: Comparison Passed: wr_data = e1 and rd_data = e1
Time = 4795000: Comparison Passed: wr_data = b2 and rd_data = b2
Time = 4935000: Comparison Passed: wr_data = a1 and rd_data = a1
Time = 5075000: Comparison Passed: wr_data = 64 and rd_data = 64
Time = 5215000: Comparison Passed: wr_data = d4 and rd_data = d4
Time = 5355000: Comparison Passed: wr_data = 1a and rd_data = 1a
Time = 5495000: Comparison Passed: wr_data = 9b and rd_data = 9b
Time = 5635000: Comparison Passed: wr_data = b5 and rd_data = b5
$finish called at time : 5755 ns : File "D:/Mtech/z_placements/verilog_code/fifo/fifo.srcs/sim_1/new/async_fifo_TB.v" Line 82
